Data Transformation With dplyr
…
2 nycflights13 data

Available from the nycflights13 package.

336,776 flights that departed from New York City in 2013:

R
Python
Julia

library("nycflights13")
flights

# A tibble: 336,776 × 19
    year month   day dep_time sched_dep_time dep_delay arr_time sched_arr_time
   <int> <int> <int>    <int>          <int>     <dbl>    <int>          <int>
 1  2013     1     1      517            515         2      830            819
 2  2013     1     1      533            529         4      850            830
 3  2013     1     1      542            540         2      923            850
 4  2013     1     1      544            545        -1     1004           1022
 5  2013     1     1      554            600        -6      812            837
 6  2013     1     1      554            558        -4      740            728
 7  2013     1     1      555            600        -5      913            854
 8  2013     1     1      557            600        -3      709            723
 9  2013     1     1      557            600        -3      838            846
10  2013     1     1      558            600        -2      753            745
# ℹ 336,766 more rows
# ℹ 11 more variables: arr_delay <dbl>, carrier <chr>, flight <int>,
#   tailnum <chr>, origin <chr>, dest <chr>, air_time <dbl>, distance <dbl>,
#   hour <dbl>, minute <dbl>, time_hour <dttm>
…
flights['time_hour'] = pd.to_datetime(flights['time_hour'])

Let’s use RCall.jl to retrieve the nycflights13 data from R.

using RCall

R"""
library(nycflights13)
"""

RObject{StrSxp}

flights = rcopy(R"flights")

336776×19 DataFrame
    Row │ year   month  day    dep_time  sched_dep_time  dep_delay  arr_time   ⋯
        │ Int64  Int64  Int64  Int64?    Int64           Float64?   Int64?     ⋯
────────┼───────────────────────────────────────────────────────────────────────
      1 │  2013      1      1       517             515        2.0       830   ⋯
      2 │  2013      1      1       533             529        4.0       850
      3 │  2013      1      1       542             540        2.0       923
      4 │  2013      1      1       544             545       -1.0      1004
      5 │  2013      1      1       554             600       -6.0       812   ⋯
      6 │  2013      1      1       554             558       -4.0       740
      7 │  2013      1      1       555             600       -5.0       913
      8 │  2013      1      1       557             600       -3.0       709
   ⋮    │   ⋮      ⋮      ⋮       ⋮            ⋮             ⋮         ⋮       ⋱
 336770 │  2013      9     30      2349            2359      -10.0       325   ⋯
 336771 │  2013      9     30   missing            1842  missing     missing
 336772 │  2013      9     30   missing            1455  missing     missing
 336773 │  2013      9     30   missing            2200  missing     missing
 336774 │  2013      9     30   missing            1210  missing     missing   ⋯
 336775 │  2013      9     30   missing            1159  missing     missing
 336776 │  2013      9     30   missing             840  missing     missing
                                              12 columns and 336761 rows omitted

To display more rows or columns:

R
Python
Julia

By default, tibble prints the first 10 rows and all columns that fit on screen.

To change number of rows and columns to display:

nycflights13::flights |> 
  print(n = 10, width = Inf)

# A tibble: 336,776 × 19
    year month   day dep_time sched_dep_time dep_delay arr_time sched_arr_time
   <int> <int> <int>    <int>          <int>     <dbl>    <int>          <int>
 1  2013     1     1      517            515         2      830            819
 2  2013     1     1      533            529         4      850            830
 3  2013     1     1      542            540         2      923            850
 4  2013     1     1      544            545        -1     1004           1022
 5  2013     1     1      554            600        -6      812            837
 6  2013     1     1      554            558        -4      740            728
 7  2013     1     1      555            600        -5      913            854
 8  2013     1     1      557            600        -3      709            723
 9  2013     1     1      557            600        -3      838            846
10  2013     1     1      558            600        -2      753            745
   arr_delay carrier flight tailnum origin dest  air_time distance  hour minute
       <dbl> <chr>    <int> <chr>   <chr>  <chr>    <dbl>    <dbl> <dbl>  <dbl>
 1        11 UA        1545 N14228  EWR    IAH        227     1400     5     15
 2        20 UA        1714 N24211  LGA    IAH        227     1416     5     29
 3        33 AA        1141 N619AA  JFK    MIA        160     1089     5     40
 4       -18 B6         725 N804JB  JFK    BQN        183     1576     5     45
 5       -25 DL         461 N668DN  LGA    ATL        116      762     6      0
 6        12 UA        1696 N39463  EWR    ORD        150      719     5     58
 7        19 B6         507 N516JB  EWR    FLL        158     1065     6      0
 8       -14 EV        5708 N829AS  LGA    IAD         53      229     6      0
 9        -8 B6          79 N593JB  JFK    MCO        140      944     6      0
10         8 AA         301 N3ALAA  LGA    ORD        138      733     6      0
   time_hour          
   <dttm>             
 1 2013-01-01 05:00:00
 2 2013-01-01 05:00:00
 3 2013-01-01 05:00:00
 4 2013-01-01 05:00:00
 5 2013-01-01 06:00:00
 6 2013-01-01 05:00:00
 7 2013-01-01 06:00:00
 8 2013-01-01 06:00:00
 9 2013-01-01 06:00:00
10 2013-01-01 06:00:00
# ℹ 336,766 more rows
…
4 Manipulate rows (cases)

4.1 Filter rows with filter()

Flights on Jan 1st:

R
Python
Julia

# same as filter(flights, month == 1 & day == 1)
filter(flights, month == 1, day == 1)

# A tibble: 842 × 19
    year month   day dep_time sched_dep_time dep_delay arr_time sched_arr_time
   <int> <int> <int>    <int>          <int>     <dbl>    <int>          <int>
 1  2013     1     1      517            515         2      830            819
 2  2013     1     1      533            529         4      850            830
 3  2013     1     1      542            540         2      923            850
 4  2013     1     1      544            545        -1     1004           1022
 5  2013     1     1      554            600        -6      812            837
 6  2013     1     1      554            558        -4      740            728
 7  2013     1     1      555            600        -5      913            854
 8  2013     1     1      557            600        -3      709            723
 9  2013     1     1      557            600        -3      838            846
10  2013     1     1      558            600        -2      753            745
# ℹ 832 more rows
# ℹ 11 more variables: arr_delay <dbl>, carrier <chr>, flight <int>,
#   tailnum <chr>, origin <chr>, dest <chr>, air_time <dbl>, distance <dbl>,
#   hour <dbl>, minute <dbl>, time_hour <dttm>
…
[842 rows x 19 columns]

filter(row -> (row.month == 1) & (row.day == 1), flights)

842×19 DataFrame
 Row │ year   month  day    dep_time  sched_dep_time  dep_delay  arr_time  sch ⋯
     │ Int64  Int64  Int64  Int64?    Int64           Float64?   Int64?    Int ⋯
─────┼──────────────────────────────────────────────────────────────────────────
   1 │  2013      1      1       517             515        2.0       830      ⋯
   2 │  2013      1      1       533             529        4.0       850
   3 │  2013      1      1       542             540        2.0       923
   4 │  2013      1      1       544             545       -1.0      1004
   5 │  2013      1      1       554             600       -6.0       812      ⋯
   6 │  2013      1      1       554             558       -4.0       740
   7 │  2013      1      1       555             600       -5.0       913
   8 │  2013      1      1       557             600       -3.0       709
  ⋮  │   ⋮      ⋮      ⋮       ⋮            ⋮             ⋮         ⋮          ⋱
 836 │  2013      1      1      2353            2359       -6.0       425      ⋯
 837 │  2013      1      1      2353            2359       -6.0       418
 838 │  2013      1      1      2356            2359       -3.0       425
 839 │  2013      1      1   missing            1630  missing     missing
 840 │  2013      1      1   missing            1935  missing     missing      ⋯
 841 │  2013      1      1   missing            1500  missing     missing
 842 │  2013      1      1   missing             600  missing     missing
                                                 12 columns and 827 rows omitted

Flights in Nov or Dec:

R
Python
Julia

filter(flights, month == 11 | month == 12)

# A tibble: 55,403 × 19
    year month   day dep_time sched_dep_time dep_delay arr_time sched_arr_time
   <int> <int> <int>    <int>          <int>     <dbl>    <int>          <int>
 1  2013    11     1        5           2359         6      352            345
 2  2013    11     1       35           2250       105      123           2356
 3  2013    11     1      455            500        -5      641            651
 4  2013    11     1      539            545        -6      856            827
 5  2013    11     1      542            545        -3      831            855
 6  2013    11     1      549            600       -11      912            923
 7  2013    11     1      550            600       -10      705            659
 8  2013    11     1      554            600        -6      659            701
 9  2013    11     1      554            600        -6      826            827
10  2013    11     1      554            600        -6      749            751
# ℹ 55,393 more rows
# ℹ 11 more variables: arr_delay <dbl>, carrier <chr>, flight <int>,
#   tailnum <chr>, origin <chr>, dest <chr>, air_time <dbl>, distance <dbl>,
#   hour <dbl>, minute <dbl>, time_hour <dttm>
…
[55403 rows x 19 columns]

filter(row -> (row.month == 11) | (row.month == 12), flights)

55403×19 DataFrame
   Row │ year   month  day    dep_time  sched_dep_time  dep_delay  arr_time  s ⋯
       │ Int64  Int64  Int64  Int64?    Int64           Float64?   Int64?    I ⋯
───────┼────────────────────────────────────────────────────────────────────────
     1 │  2013     11      1         5            2359        6.0       352    ⋯
     2 │  2013     11      1        35            2250      105.0       123
     3 │  2013     11      1       455             500       -5.0       641
     4 │  2013     11      1       539             545       -6.0       856
     5 │  2013     11      1       542             545       -3.0       831    ⋯
     6 │  2013     11      1       549             600      -11.0       912
     7 │  2013     11      1       550             600      -10.0       705
     8 │  2013     11      1       554             600       -6.0       659
   ⋮   │   ⋮      ⋮      ⋮       ⋮            ⋮             ⋮         ⋮        ⋱
 55397 │  2013     12     31   missing            1430  missing     missing    ⋯
 55398 │  2013     12     31   missing             855  missing     missing
 55399 │  2013     12     31   missing             705  missing     missing
 55400 │  2013     12     31   missing             825  missing     missing
 55401 │  2013     12     31   missing            1615  missing     missing    ⋯
 55402 │  2013     12     31   missing             600  missing     missing
 55403 │  2013     12     31   missing             830  missing     missing
                                               12 columns and 55388 rows omitted
…
Randomly select fraction of rows:

sample_frac(flights, 0.1, replace = TRUE)

# A tibble: 33,678 × 19
    year month   day dep_time sched_dep_time dep_delay arr_time sched_arr_time
   <int> <int> <int>    <int>          <int>     <dbl>    <int>          <int>
 1  2013     4    16      554            600        -6      652            659
 2  2013     9    25      652            700        -8      758            806
 3  2013    10     3      950            959        -9     1219           1207
 4  2013     4     2     2049           2015        34       23             11
 5  2013    11    28     2120           2125        -5     2313           2328
 6  2013     6    15     2038           2040        -2     2138           2205
 7  2013    10    25      843            845        -2     1041           1053
 8  2013     3    20     1450           1450         0     1631           1654
 9  2013    12    16      857            900        -3     1245           1214
10  2013     8    26     1951           1915        36     2151           2211
# ℹ 33,668 more rows
# ℹ 11 more variables: arr_delay <dbl>, carrier <chr>, flight <int>,
#   tailnum <chr>, origin <chr>, dest <chr>, air_time <dbl>, distance <dbl>,
#   hour <dbl>, minute <dbl>, time_hour <dttm>
…
Sample 10% rows:

rowidx = StatsBase.sample(
  1:nrow(flights), 
  round(Int, nrow(flights) * 0.1), 
  replace = true);
flights[rowidx, :]

33678×19 DataFrame
   Row │ year   month  day    dep_time  sched_dep_time  dep_delay  arr_time  s ⋯
       │ Int64  Int64  Int64  Int64?    Int64           Float64?   Int64?    I ⋯
───────┼────────────────────────────────────────────────────────────────────────
     1 │  2013     12     19      1505            1400       65.0      1815    ⋯
     2 │  2013      7     30      1559            1559        0.0      1731
     3 │  2013      8     28       858             900       -2.0      1101
     4 │  2013      5     19      1656            1645       11.0      1843
     5 │  2013      2      6      1340            1350      -10.0      1559    ⋯
     6 │  2013      3     20       644             643        1.0       853
     7 │  2013      5     13      2049            2100      -11.0      2204
     8 │  2013      3      1      1153            1200       -7.0      1314
   ⋮   │   ⋮      ⋮      ⋮       ⋮            ⋮             ⋮         ⋮        ⋱
 33672 │  2013      1     31      2146            2130       16.0      2400    ⋯
 33673 │  2013     11     11       919             921       -2.0      1217
 33674 │  2013      4     13      2206            2150       16.0        56
 33675 │  2013      8     29      1542            1545       -3.0      1757
 33676 │  2013      5     27       956            1000       -4.0      1207    ⋯
 33677 │  2013     10     11      1443            1239      124.0      1610
 33678 │  2013      2     20       620             630      -10.0       812
                                               12 columns and 33663 rows omitted
…
4.5 Arrange rows with arrange()

R
Python
Julia

Sort in ascending order:

arrange(flights, year, month, day)

# A tibble: 336,776 × 19
    year month   day dep_time sched_dep_time dep_delay arr_time sched_arr_time
   <int> <int> <int>    <int>          <int>     <dbl>    <int>          <int>
 1  2013     1     1      517            515         2      830            819
 2  2013     1     1      533            529         4      850            830
 3  2013     1     1      542            540         2      923            850
 4  2013     1     1      544            545        -1     1004           1022
 5  2013     1     1      554            600        -6      812            837
 6  2013     1     1      554            558        -4      740            728
 7  2013     1     1      555            600        -5      913            854
 8  2013     1     1      557            600        -3      709            723
 9  2013     1     1      557            600        -3      838            846
10  2013     1     1      558            600        -2      753            745
# ℹ 336,766 more rows
# ℹ 11 more variables: arr_delay <dbl>, carrier <chr>, flight <int>,
#   tailnum <chr>, origin <chr>, dest <chr>, air_time <dbl>, distance <dbl>,
#   hour <dbl>, minute <dbl>, time_hour <dttm>

Note input order matters!

arrange(flights, day, month, year)

# A tibble: 336,776 × 19
    year month   day dep_time sched_dep_time dep_delay arr_time sched_arr_time
   <int> <int> <int>    <int>          <int>     <dbl>    <int>          <int>
 1  2013     1     1      517            515         2      830            819
 2  2013     1     1      533            529         4      850            830
 3  2013     1     1      542            540         2      923            850
 4  2013     1     1      544            545        -1     1004           1022
 5  2013     1     1      554            600        -6      812            837
 6  2013     1     1      554            558        -4      740            728
 7  2013     1     1      555            600        -5      913            854
 8  2013     1     1      557            600        -3      709            723
 9  2013     1     1      557            600        -3      838            846
10  2013     1     1      558            600        -2      753            745
# ℹ 336,766 more rows
# ℹ 11 more variables: arr_delay <dbl>, carrier <chr>, flight <int>,
#   tailnum <chr>, origin <chr>, dest <chr>, air_time <dbl>, distance <dbl>,
#   hour <dbl>, minute <dbl>, time_hour <dttm>

Sort in descending order:

arrange(flights, desc(arr_delay)) |>
  print(width = Inf)

# A tibble: 336,776 × 19
    year month   day dep_time sched_dep_time dep_delay arr_time sched_arr_time
   <int> <int> <int>    <int>          <int>     <dbl>    <int>          <int>
 1  2013     1     9      641            900      1301     1242           1530
 2  2013     6    15     1432           1935      1137     1607           2120
 3  2013     1    10     1121           1635      1126     1239           1810
 4  2013     9    20     1139           1845      1014     1457           2210
 5  2013     7    22      845           1600      1005     1044           1815
 6  2013     4    10     1100           1900       960     1342           2211
 7  2013     3    17     2321            810       911      135           1020
 8  2013     7    22     2257            759       898      121           1026
 9  2013    12     5      756           1700       896     1058           2020
10  2013     5     3     1133           2055       878     1250           2215
   arr_delay carrier flight tailnum origin dest  air_time distance  hour minute
       <dbl> <chr>    <int> <chr>   <chr>  <chr>    <dbl>    <dbl> <dbl>  <dbl>
 1      1272 HA          51 N384HA  JFK    HNL        640     4983     9      0
 2      1127 MQ        3535 N504MQ  JFK    CMH         74      483    19     35
 3      1109 MQ        3695 N517MQ  EWR    ORD        111      719    16     35
 4      1007 AA         177 N338AA  JFK    SFO        354     2586    18     45
 5       989 MQ        3075 N665MQ  JFK    CVG         96      589    16      0
 6       931 DL        2391 N959DL  JFK    TPA        139     1005    19      0
 7       915 DL        2119 N927DA  LGA    MSP        167     1020     8     10
 8       895 DL        2047 N6716C  LGA    ATL        109      762     7     59
 9       878 AA         172 N5DMAA  EWR    MIA        149     1085    17      0
10       875 MQ        3744 N523MQ  EWR    ORD        112      719    20     55
   time_hour          
   <dttm>             
 1 2013-01-09 09:00:00
 2 2013-06-15 19:00:00
 3 2013-01-10 16:00:00
 4 2013-09-20 18:00:00
 5 2013-07-22 16:00:00
 6 2013-04-10 19:00:00
 7 2013-03-17 08:00:00
 8 2013-07-22 07:00:00
 9 2013-12-05 17:00:00
10 2013-05-03 20:00:00
# ℹ 336,766 more rows
…
